…
The function `ptt_get_statfi` accesses the API of Statistics Finland and
tidies the data.

``` r
ptt_get_statfi(my_url, my_query)
#> Updating:https://pxnet2.stat.fi/PXWeb/api/v1/fi/StatFin/kou/vkour/statfin_vkour_pxt_12bq.px
#> Without year-argument a general region classification including abolished municipalities got.
#> [1] "Checking region classifications..."
#> Region classification check: Classifications ok!
#> # A tibble: 72 x 12
#>    time       alue_code ika_code sukupuoli_code koulutusaste_code tiedot_code
#>  * <date>     <fct>     <fct>    <fct>          <fct>             <fct>      
#>  1 1970-01-01 SSS       SSS      SSS            SSS               vaesto     
#>  2 1970-01-01 SSS       SSS      SSS            3T8               vaesto     
#>  3 1970-01-01 SSS       SSS      1              SSS               vaesto     
#>  4 1970-01-01 SSS       SSS      1              3T8               vaesto     
#>  5 1970-01-01 SSS       SSS      2              SSS               vaesto     
#>  6 1970-01-01 SSS       SSS      2              3T8               vaesto     
#>  7 1970-01-01 SSS       15-19    SSS            SSS               vaesto     
#>  8 1970-01-01 SSS       15-19    SSS            3T8               vaesto     
#>  9 1970-01-01 SSS       15-19    1              SSS               vaesto     
#> 10 1970-01-01 SSS       15-19    1              3T8               vaesto     
#> # ... with 62 more rows, and 6 more variables: alue_name <fct>, ika_name <fct>,
#> #   sukupuoli_name <fct>, koulutusaste_name <fct>, tiedot_name <fct>,
#> #   values <dbl>
```
…
